台灣安樂死合法化之議題討論
…
Euthanasia

## # A tibble: 850 x 10
##    artTitle artDate    artTime  artUrl artPoster artCat commentNum  push   boo
##    <chr>    <date>     <time>   <chr>  <chr>     <chr>       <dbl> <dbl> <dbl>
##  1 [問卦]不想活~ 2017-01-03 07:38:46 https~ ryan0222  Gossi~          5     0     2
##  2 [爆卦]衛福部~ 2017-01-04 02:34:06 https~ blacksug~ Gossi~         25     8    11
##  3 [問卦]安樂死~ 2017-01-11 01:04:13 https~ jacktype~ Gossi~         14    10     0
##  4 [ＦＢ]賴清德~ 2017-01-11 03:35:44 https~ medama    Gossi~          8     2     0
##  5 [問卦]如果安~ 2017-01-11 06:07:04 https~ ss910126  Gossi~         19     8     3
##  6 [新聞]媽媽被~ 2017-01-13 03:13:48 https~ purplvam~ Gossi~         14     8     2
##  7 [問卦]支持安~ 2017-01-18 11:16:53 https~ J22796168 Gossi~         30    10     3
##  8 [問卦]安樂死~ 2017-01-18 20:44:04 https~ Eangel    Gossi~         19     4     6
##  9 [問卦]張振聲~ 2017-01-19 21:07:52 https~ kiwibee   Gossi~         13     5     1
## 10 [問卦]台灣為~ 2017-01-21 04:47:28 https~ l10O      Gossi~          8     3     0
## # ... with 840 more rows, and 1 more variable: sentence <chr>
…
reviews

## # A tibble: 33,342 x 10
##    artTitle artDate    artTime  artUrl artPoster artCat cmtPoster cmtStatus
##    <chr>    <date>     <time>   <chr>  <chr>     <chr>  <chr>     <chr>    
##  1 [問卦]不想活~ 2017-01-03 07:38:46 https~ ryan0222  Gossi~ ZO20      →        
##  2 [問卦]不想活~ 2017-01-03 07:38:46 https~ ryan0222  Gossi~ rookiecop →        
##  3 [問卦]不想活~ 2017-01-03 07:38:46 https~ ryan0222  Gossi~ sammoon   噓       
##  4 [問卦]不想活~ 2017-01-03 07:38:46 https~ ryan0222  Gossi~ heat0204  噓       
##  5 [問卦]不想活~ 2017-01-03 07:38:46 https~ ryan0222  Gossi~ cp296633  →        
##  6 [爆卦]衛福部~ 2017-01-04 02:34:06 https~ blacksug~ Gossi~ Ayreon    噓       
##  7 [爆卦]衛福部~ 2017-01-04 02:34:06 https~ blacksug~ Gossi~ leehanhan 推       
##  8 [爆卦]衛福部~ 2017-01-04 02:34:06 https~ blacksug~ Gossi~ gundam06~ 噓       
##  9 [爆卦]衛福部~ 2017-01-04 02:34:06 https~ blacksug~ Gossi~ poeoe     噓       
## 10 [爆卦]衛福部~ 2017-01-04 02:34:06 https~ blacksug~ Gossi~ chadhsieh →        
## # ... with 33,332 more rows, and 2 more variables: cmtDate <dttm>,
## #   cmtContent <chr>
…
2.斷詞與整理斷詞結果

進行斷詞，並計算各詞彙在各文章中出現的次數

Euthanasia_words <- Euthanasia_sentences %>%
  unnest_tokens(word, sentence, token=chi_tokenizer) %>%
  filter(!str_detect(word, regex("[0-9a-zA-Z]"))) %>%
  count(artUrl, word, sort = TRUE)
Euthanasia_words

## # A tibble: 59,940 x 3
##    artUrl                                                   word       n
##    <fct>                                                    <chr>  <int>
##  1 https://www.ptt.cc/bbs/Gossiping/M.1558454127.A.21F.html 朗貝爾    56
##  2 https://www.ptt.cc/bbs/Gossiping/M.1506234590.A.B5C.html 台大      41
##  3 https://www.ptt.cc/bbs/Gossiping/M.1558505376.A.23B.html 動物      40
##  4 https://www.ptt.cc/bbs/Gossiping/M.1503141535.A.302.html 台大      38
##  5 https://www.ptt.cc/bbs/Gossiping/M.1503141535.A.302.html 振聲      28
##  6 https://www.ptt.cc/bbs/Gossiping/M.1506234590.A.B5C.html 振聲      28
##  7 https://www.ptt.cc/bbs/Gossiping/M.1558454127.A.21F.html 法國      26
##  8 https://www.ptt.cc/bbs/Gossiping/M.1483526412.A.E3F.html 病人      25
##  9 https://www.ptt.cc/bbs/Gossiping/M.1483526412.A.E3F.html 醫療      25
## 10 https://www.ptt.cc/bbs/Gossiping/M.1528372976.A.5E2.html 傅達仁    25
## # ... with 59,930 more rows

計算每篇文章包含的詞數

total_words <- Euthanasia_words %>% 
  group_by(artUrl) %>% 
  summarize(total = sum(n))
total_words

## # A tibble: 850 x 2
##    artUrl                                                   total
##    <fct>                                                    <int>
##  1 https://www.ptt.cc/bbs/Gossiping/M.1483458289.A.84B.html    43
##  2 https://www.ptt.cc/bbs/Gossiping/M.1483526412.A.E3F.html   546
##  3 https://www.ptt.cc/bbs/Gossiping/M.1484125815.A.B14.html    66
##  4 https://www.ptt.cc/bbs/Gossiping/M.1484134907.A.F5F.html   194
##  5 https://www.ptt.cc/bbs/Gossiping/M.1484143988.A.774.html    30
##  6 https://www.ptt.cc/bbs/Gossiping/M.1484306396.A.E41.html   190
##  7 https://www.ptt.cc/bbs/Gossiping/M.1484767375.A.124.html    34
##  8 https://www.ptt.cc/bbs/Gossiping/M.1484801407.A.807.html    43
##  9 https://www.ptt.cc/bbs/Gossiping/M.1484889238.A.D58.html    17
## 10 https://www.ptt.cc/bbs/Gossiping/M.1485003210.A.30F.html    73
## # ... with 840 more rows

合併 Euthanasia_words（每個詞彙在每個文章中出現的次數） 
 與 total_words（每篇文章的詞數） 
 新增各個詞彙在所有詞彙中的總數欄位 

Euthanasia_words <- left_join(Euthanasia_words, total_words)

## Joining, by = "artUrl"

Euthanasia_words

## # A tibble: 59,940 x 4
##    artUrl                                                   word       n total
##    <fct>                                                    <chr>  <int> <int>
##  1 https://www.ptt.cc/bbs/Gossiping/M.1558454127.A.21F.html 朗貝爾    56   870
##  2 https://www.ptt.cc/bbs/Gossiping/M.1506234590.A.B5C.html 台大      41   980
##  3 https://www.ptt.cc/bbs/Gossiping/M.1558505376.A.23B.html 動物      40   758
##  4 https://www.ptt.cc/bbs/Gossiping/M.1503141535.A.302.html 台大      38  2013
##  5 https://www.ptt.cc/bbs/Gossiping/M.1503141535.A.302.html 振聲      28  2013
##  6 https://www.ptt.cc/bbs/Gossiping/M.1506234590.A.B5C.html 振聲      28   980
##  7 https://www.ptt.cc/bbs/Gossiping/M.1558454127.A.21F.html 法國      26   870
##  8 https://www.ptt.cc/bbs/Gossiping/M.1483526412.A.E3F.html 病人      25   546
##  9 https://www.ptt.cc/bbs/Gossiping/M.1483526412.A.E3F.html 醫療      25   546
## 10 https://www.ptt.cc/bbs/Gossiping/M.1528372976.A.5E2.html 傅達仁    25   795
## # ... with 59,930 more rows
…
發現同樣都是安樂死經常出現的正面字詞都差不多，而主動安樂死（正面個案）出現的負面字詞較為類似；反觀被動安樂死（負面個案）出現的負面字詞較為多元。

計算 tf-idf

# 以每篇文章爲單位，計算每個詞彙在的tf-idf值
Euthanasia_words_tf_idf <- Euthanasia_words %>%
  bind_tf_idf(word, artUrl, n)

Euthanasia_words_tf_idf

## # A tibble: 59,940 x 7
##    artUrl                                  word      n total     tf   idf tf_idf
##    <fct>                                   <chr> <int> <int>  <dbl> <dbl>  <dbl>
##  1 https://www.ptt.cc/bbs/Gossiping/M.155~ 朗貝爾~    56   870 0.0644  6.75 0.434 
##  2 https://www.ptt.cc/bbs/Gossiping/M.150~ 台大     41   980 0.0418  5.36 0.224 
##  3 https://www.ptt.cc/bbs/Gossiping/M.155~ 動物     40   758 0.0528  2.50 0.132 
##  4 https://www.ptt.cc/bbs/Gossiping/M.150~ 台大     38  2013 0.0189  5.36 0.101 
##  5 https://www.ptt.cc/bbs/Gossiping/M.150~ 振聲     28  2013 0.0139  6.05 0.0842
##  6 https://www.ptt.cc/bbs/Gossiping/M.150~ 振聲     28   980 0.0286  6.05 0.173 
##  7 https://www.ptt.cc/bbs/Gossiping/M.155~ 法國     26   870 0.0299  4.55 0.136 
##  8 https://www.ptt.cc/bbs/Gossiping/M.148~ 病人     25   546 0.0458  2.47 0.113 
##  9 https://www.ptt.cc/bbs/Gossiping/M.148~ 醫療     25   546 0.0458  2.04 0.0936
## 10 https://www.ptt.cc/bbs/Gossiping/M.152~ 傅達仁~    25   795 0.0314  2.11 0.0664
## # ... with 59,930 more rows

# 選出每篇文章，tf-idf最大的十個詞
Euthanasia_words_tf_idf %>% 
  group_by(artUrl) %>%
  top_n(10) %>%
  arrange(desc(artUrl))

## Selecting by tf_idf

## # A tibble: 9,796 x 7
## # Groups:   artUrl [850]
##    artUrl                                 word       n total     tf   idf tf_idf
##    <fct>                                  <chr>  <int> <int>  <dbl> <dbl>  <dbl>
##  1 https://www.ptt.cc/bbs/Gossiping/M.15~ 殺人       3    68 0.0441  3.45 0.152 
##  2 https://www.ptt.cc/bbs/Gossiping/M.15~ 失調       2    68 0.0294  5.65 0.166 
##  3 https://www.ptt.cc/bbs/Gossiping/M.15~ 有罪       2    68 0.0294  5.65 0.166 
##  4 https://www.ptt.cc/bbs/Gossiping/M.15~ 思覺       2    68 0.0294  5.65 0.166 
##  5 https://www.ptt.cc/bbs/Gossiping/M.15~ 國際       2    68 0.0294  3.53 0.104 
##  6 https://www.ptt.cc/bbs/Gossiping/M.15~ 棒棒       2    68 0.0294  6.05 0.178 
##  7 https://www.ptt.cc/bbs/Gossiping/M.15~ 必勝       1    68 0.0147  6.75 0.0992
##  8 https://www.ptt.cc/bbs/Gossiping/M.15~ 法律制裁~     1    68 0.0147  6.75 0.0992
##  9 https://www.ptt.cc/bbs/Gossiping/M.15~ 運作       1    68 0.0147  6.75 0.0992
## 10 https://www.ptt.cc/bbs/Gossiping/M.15~ 警案       1    68 0.0147  6.75 0.0992
## # ... with 9,786 more rows

# 選每篇文章，tf-idf最大的十個詞，
# 並查看每個詞被選中的次數
Euthanasia_words_tf_idf %>% 
  group_by(artUrl) %>%
  top_n(10) %>%
  arrange(desc(artUrl)) %>%
  ungroup() %>%
  count(word, sort=TRUE)

## Selecting by tf_idf

## # A tibble: 7,169 x 2
##    word       n
##    <chr>  <int>
##  1 傅達仁    35
##  2 自殺      32
##  3 動物      24
##  4 病人      20
##  5 瑞士      20
##  6 連署      17
##  7 老人      15
##  8 流浪      15
##  9 公投      14
## 10 死刑      14
## # ... with 7,159 more rows
…
# 執行bigram分詞
Euthanasia_bigram <- Euthanasia %>%
  unnest_tokens(bigram, sentence, token = jieba_bigram)
Euthanasia_bigram

## # A tibble: 129,031 x 10
##    artTitle artDate    artTime  artUrl artPoster artCat commentNum  push   boo
##    <chr>    <date>     <time>   <chr>  <chr>     <chr>       <dbl> <dbl> <dbl>
##  1 [問卦]不想活~ 2017-01-03 07:38:46 https~ ryan0222  Gossi~          5     0     2
##  2 [問卦]不想活~ 2017-01-03 07:38:46 https~ ryan0222  Gossi~          5     0     2
##  3 [問卦]不想活~ 2017-01-03 07:38:46 https~ ryan0222  Gossi~          5     0     2
##  4 [問卦]不想活~ 2017-01-03 07:38:46 https~ ryan0222  Gossi~          5     0     2
##  5 [問卦]不想活~ 2017-01-03 07:38:46 https~ ryan0222  Gossi~          5     0     2
##  6 [問卦]不想活~ 2017-01-03 07:38:46 https~ ryan0222  Gossi~          5     0     2
##  7 [問卦]不想活~ 2017-01-03 07:38:46 https~ ryan0222  Gossi~          5     0     2
##  8 [問卦]不想活~ 2017-01-03 07:38:46 https~ ryan0222  Gossi~          5     0     2
##  9 [問卦]不想活~ 2017-01-03 07:38:46 https~ ryan0222  Gossi~          5     0     2
## 10 [問卦]不想活~ 2017-01-03 07:38:46 https~ ryan0222  Gossi~          5     0     2
## # ... with 129,021 more rows, and 1 more variable: bigram <chr>

# 清楚包含英文或數字的bigram組合
# 計算每個組合出現的次數
Euthanasia_bigram %>%
  filter(!str_detect(bigram, regex("[0-9a-zA-Z]"))) %>%
  count(bigram, sort = TRUE)

## # A tibble: 82,543 x 2
##    bigram            n
##    <chr>         <int>
##  1 安樂死 的       318
##  2 的 人           267
##  3 的 安樂死       101
##  4 完整 新聞       100
##  5 為 什麼          99
##  6 零 安樂死        99
##  7 也 是            97
##  8 都 是            94
##  9 植物 人          94
## 10 安樂死 合法化    93
## # ... with 82,533 more rows
…
# 執行trigram分詞
Euthanasia_trigram <- Euthanasia %>%
  unnest_tokens(ngrams, sentence, token = jieba_trigram)
Euthanasia_trigram %>%
  filter(!str_detect(ngrams, regex("[0-9a-zA-Z]"))) %>%
  count(ngrams, sort = TRUE)

## # A tibble: 106,191 x 2
##    ngrams               n
##    <chr>            <int>
##  1 傅 達 仁            53
##  2 完整 新聞 連結      51
##  3 完整 新聞 內文      49
##  4 或 短 網址          49
##  5 連結 或 短          49
##  6 新聞 連結 或        49
##  7 體育 主播 傅達仁    41
##  8 安寧 緩和 醫療      33
##  9 零 安樂死 政策      32
## 10 病人 自主 權利      31
## # ... with 106,181 more rows
…
載入stop words字典

#load stop words
stop_words <- scan(file = "stop_words.txt", what=character(),sep='\n',encoding='utf-8')

# remove the stop words in bigram
Euthanasia_bigram %>%
  filter(!str_detect(bigram, regex("[0-9a-zA-Z]"))) %>%
  separate(bigram, c("word1", "word2"), sep = " ") %>% 
  filter(!(word1 %in% stop_words), !(word2 %in% stop_words)) %>%
  count(word1, word2, sort = TRUE) %>%
  unite_("bigram", c("word1","word2"), sep=" ")

## # A tibble: 82,543 x 2
##    bigram            n
##    <chr>         <int>
##  1 安樂死 的       318
##  2 的 人           267
##  3 的 安樂死       101
##  4 完整 新聞       100
##  5 為 什麼          99
##  6 零 安樂死        99
##  7 也 是            97
##  8 都 是            94
##  9 植物 人          94
## 10 安樂死 合法化    93
## # ... with 82,533 more rows

# remove the stop words in trigram
Euthanasia_trigram %>%
  filter(!str_detect(ngrams, regex("[0-9a-zA-Z]"))) %>%
  separate(ngrams, c("word1", "word2", "word3"), sep = " ") %>% 
  filter(!(word1 %in% stop_words), !(word2 %in% stop_words), !(word3 %in% stop_words)) %>%
  count(word1, word2, word3, sort = TRUE) %>%
  unite_("ngrams", c("word1", "word2", "word3"), sep=" ")

## # A tibble: 106,191 x 2
##    ngrams               n
##    <chr>            <int>
##  1 傅 達 仁            53
##  2 完整 新聞 連結      51
##  3 完整 新聞 內文      49
##  4 或 短 網址          49
##  5 連結 或 短          49
##  6 新聞 連結 或        49
##  7 體育 主播 傅達仁    41
##  8 安寧 緩和 醫療      33
##  9 零 安樂死 政策      32
## 10 病人 自主 權利      31
## # ... with 106,181 more rows
…
Word Correlation

# 剛才的斷詞結果沒有使用新增的辭典，
# 因此我們重新進行斷詞，再計算各詞彙在各文章中出現的次數
Euthanasia_words <- Euthanasia_sentences %>%
  unnest_tokens(word, sentence, token=chi_tokenizer) %>%
  filter(!str_detect(word, regex("[0-9a-zA-Z]"))) %>%
  count(artUrl, word, sort = TRUE)
Euthanasia_words

## # A tibble: 59,940 x 3
##    artUrl                                                   word       n
##    <fct>                                                    <chr>  <int>
##  1 https://www.ptt.cc/bbs/Gossiping/M.1558454127.A.21F.html 朗貝爾    56
##  2 https://www.ptt.cc/bbs/Gossiping/M.1506234590.A.B5C.html 台大      41
##  3 https://www.ptt.cc/bbs/Gossiping/M.1558505376.A.23B.html 動物      40
##  4 https://www.ptt.cc/bbs/Gossiping/M.1503141535.A.302.html 台大      38
##  5 https://www.ptt.cc/bbs/Gossiping/M.1503141535.A.302.html 振聲      28
##  6 https://www.ptt.cc/bbs/Gossiping/M.1506234590.A.B5C.html 振聲      28
##  7 https://www.ptt.cc/bbs/Gossiping/M.1558454127.A.21F.html 法國      26
##  8 https://www.ptt.cc/bbs/Gossiping/M.1483526412.A.E3F.html 病人      25
##  9 https://www.ptt.cc/bbs/Gossiping/M.1483526412.A.E3F.html 醫療      25
## 10 https://www.ptt.cc/bbs/Gossiping/M.1528372976.A.5E2.html 傅達仁    25
## # ... with 59,930 more rows

# 計算兩個詞彙同時出現的總次數
word_pairs <- Euthanasia_words %>%
  pairwise_count(word, artUrl, sort = TRUE)

word_pairs

## # A tibble: 7,675,024 x 3
##    item1  item2      n
##    <chr>  <chr>  <dbl>
##  1 可以   安樂死   309
##  2 安樂死 可以     309
##  3 台灣   安樂死   278
##  4 安樂死 台灣     278
##  5 自己   安樂死   258
##  6 如果   安樂死   258
##  7 安樂死 自己     258
##  8 安樂死 如果     258
##  9 沒有   安樂死   222
## 10 安樂死 沒有     222
## # ... with 7,675,014 more rows

# 計算兩個詞彙間的相關性
word_cors <- Euthanasia_words %>%
  group_by(word) %>%
  filter(n() >= 20) %>%
  pairwise_cor(word, artUrl, sort = TRUE)

word_cors

## # A tibble: 243,542 x 3
##    item1 item2  correlation
##    <chr> <chr>        <dbl>
##  1 真的  安樂死         Inf
##  2 權利  安樂死         Inf
##  3 老人  安樂死         Inf
##  4 人類  安樂死         Inf
##  5 就是  安樂死         Inf
##  6 新聞  安樂死         Inf
##  7 患者  安樂死         Inf
##  8 立法  安樂死         Inf
##  9 可能  安樂死         Inf
## 10 透露  安樂死         Inf
## # ... with 243,532 more rows
…
perplexity 越小越好，但是太小的話，主題數會分太細。通常會找一個主題數適當，且perplexity比較低的主題。 因此，在後續分析時，本組將分為 “10個”主題。

\(\phi\) Matrix

查看各個主題的單詞組成比率

Euthanasia_lda = ldas[[3]] ## 選定topic 為10 的結果

topics <- tidy(Euthanasia_lda, matrix = "beta") # 注意，在tidy function裡面要使用"beta"來取出Phi矩陣。
topics

## # A tibble: 147,660 x 3
##    topic term       beta
##    <int> <chr>     <dbl>
##  1     1 人生  0.00189  
##  2     2 人生  0.00133  
##  3     3 人生  0.00201  
##  4     4 人生  0.00110  
##  5     5 人生  0.00150  
##  6     6 人生  0.00109  
##  7     7 人生  0.00138  
##  8     8 人生  0.00414  
##  9     9 人生  0.0000533
## 10    10 人生  0.00230  
## # ... with 147,650 more rows
…
